Documentation
…
glue graph

Package wide function use

PaRe allows you to get insight in the function usage in
a package.

summariseFunctionUse

funsUsed <- PaRe::getFunctionUse(repo = repo)
funsUsed

#> # A tibble: 426 × 4
#>    file     line pkg     fun         
#>    <chr>   <int> <chr>   <chr>       
#>  1 color.R    59 base    function    
#>  2 color.R    59 base    parent.frame
#>  3 color.R    60 unknown glue        
#>  4 color.R    65 base    function    
#>  5 color.R    65 base    parent.frame
#>  6 color.R    66 unknown glue_data   
#>  7 color.R    69 base    function    
#>  8 color.R    70 base    function    
#>  9 color.R    70 base    parse       
#> 10 color.R    70 base    tryCatch    
#> # ℹ 416 more rows
…
